id_haie	l93_x	l93_y	annee_inf	annee_sup	annee_med	annee_amp	type	h_max	h_min	h_moy	h_amp	longueur	largeur	multi_bande	nb_bande	connection	dist_for_500	surf_for_500	dist_for	surf_for_1000	elem_adj1	elem_adj2	elem_adj	ipa_adj1	ipa_adj2	ipa_adj
beaum_h1	637497	7004925	1829	1829	1829	0	3	15	6	11	9	153	2	0	1	0	90	22444	90	22444	culture	pature	culture_pature	5	4	9
beaum_h2	637108	7004805	1829	1829	1829	0	3	8	4	6	4	81	2	0	1	0	204	17677	204	17677	chemin	pature	chemin_autre	1	4	5
berna_h1	640312	7003394	1807	1807	1807	0	3	14	4	9	10	204	2	0	1	0	60	20197	60	29003	pature	chemin	chemin_autre	4	1	5
berna_h2	640555	7003541	1807	1835	1821	28	3	16	6	12	10	131	2	0	1	0	134	19386	134	19386	pature	pature	pature_pature	4	4	8
berna_h3	640784	7003623	1807	1807	1807	0	1	1.5	1.5	1.5	0	60	1	0	1	0	181	12624	181	12624	route	pature	pature_route	2	4	6
berna_h4	639543	7003989	1835	1835	1835	0	3	18	10	14	8	219	2	0	1	0	114	64048	114	150281	chemin	pature	chemin_autre	1	4	5
boutav_h1	610531	6949644	1700	1800	1750	100	2	2	2	2	0	247	1	1	44	0	6	105008	6	116814	pature	pature	pature_pature	4	4	8
boutav_h2	610703	6949575	1800	1947	1874	147	3	12	4	8	8	80	2	1	14	0	58	141963	58	163351	pature	pature	pature_pature	4	4	8
boutav_h3	610445	6949433	1800	1947	1874	147	3	8	3	6	5	144	2	0	1	0	168	90538	168	100909	culture	culture	culture_culture	5	5	10
boutav_h4	610575	6949246	1947	1975	1961	28	2	8	8	8	0	192	2	0	1	0	233	160520	233	170890	pature	route	pature_route	4	2	6
boutav_h5	610030	6949613	1700	1800	1750	100	1	2	2	2	0	187	1	0	1	0	293	6471	293	6471	route	pature	pature_route	2	4	6
boutav_h6	610061	6949330	1800	1947	1874	147	3	15	3	9	12	150	2	0	1	0	430	5667	430	7987	culture	pature	culture_pature	5	4	9
boutav_h7	611780	6949236	1800	1947	1874	147	2	6	6	6	0	310	1.5	0	1	0	0	79926	0	449585	pature	culture	culture_pature	4	5	9
boutav_h8	610652	6950209	1992	1999	1996	7	2	5	5	5	0	68	0.5	0	1	0	158	42423	158	42423	culture	pature	culture_pature	5	4	9
boutav_h9	610458	6949962	1700	1800	1750	100	3	12	6	9	6	54	2	0	1	0	0	46630	0	48949	culture	pature	culture_pature	5	4	9
dom_h1	623172	7011575	1999	2001	2000	2	2	12	12	12	0	71	1	0	1	0	209	24261	209	127249	culture	pature	culture_pature	5	4	9
dom_h2	623221	7012065	1790	1947	1869	157	3	18	2	10	16	175	1	0	1	0	151	86840	151	221240	culture	prairie	culture_prairie	5	4	9
dom_h3	622878	7012112	1947	1975	1961	28	2	8	8	8	0	88	1	0	1	0	149	6970	149	38750	pature	pature	pature_pature	4	4	8
dom_h4	622768	7012215	1790	1947	1869	157	3	16	10	13	6	132	2	0	1	0	278	6970	278	36977	prairie	chemin	chemin_autre	4	1	5
dom_h5	622856	7012381	1947	1975	1961	28	1	3	3	3	0	60	3	0	1	0	447	918	447	131569	culture	pature	culture_pature	5	4	9
dom_h6	622223	7012289	1790	1947	1869	157	3	20	6	13	14	224	2	0	1	0	6	94572	6	133970	chemin	pature	chemin_autre	1	4	5
domq_h1	630719	7002291	1807	1807	1807	0	3	15	6	11	9	215	2	0	1	0	11	263161	11	323155	pature	pature	pature_pature	4	4	8
fla_h1	765820	6988883	1940	1975	1958	35	1	6	6	6	0	187	1.5	0	1	0	NA	0	2608	0	pature	pature	pature_pature	4	4	8
fla_h10	763193	6989754	1700	1750	1725	50	4	20	8	15	12	156	3	1	20	1	0	334948	0	910788	pature	pature	pature_pature	4	4	8
fla_h11	762850	6988595	1700	1750	1725	50	4	7	7	7	0	206	2	1	11	1	0	334979	0	1310236	culture	pature	culture_pature	5	4	9
fla_h12	762856	6989280	1700	1750	1725	50	3	15	5	10	10	92	3	1	17	1	0	444876	0	1266259	pature	pature	pature_pature	4	4	8
fla_h13	763182	6989488	1700	1750	1725	50	3	16	5	10	11	229	2	0	1	0	160	258495	160	727683	pature	pature	pature_pature	4	4	8
fla_h14	762904	6989114	1700	1750	1725	50	2	15	10	12	5	142	2	1	18	0	93	404284	93	1144963	pature	pature	pature_pature	4	4	8
fla_h15	763000	6989051	1700	1750	1725	50	3	18	4	11	14	239	3	1	41	0	95	308440	95	922246	pature	pature	pature_pature	4	4	8
fla_h16	763729	6989623	1700	1750	1725	50	2	8	6	7	2	121	3	1	19	0	NA	0	949	2446	pature	pature	pature_pature	4	4	8
fla_h17	763582	6989623	1700	1750	1725	50	3	25	6	15	19	82	4	1	15	0	451	9392	451	53011	pature	pature	pature_pature	4	4	8
fla_h18	762973	6989435	1700	1750	1725	50	3	20	8	15	12	152	3	1	34	1	0	420894	0	1185741	pature	pature	pature_pature	4	4	8
fla_h19	765320	6991616	1700	1750	1725	50	3	16	8	12	8	103	3.5	1	19	1	0	371888	0	371888	chemin	pature	chemin_autre	1	4	5
fla_h2	765851	6988804	1991	1996	1994	5	1	6	6	6	0	142	1	0	1	0	NA	0	2559	0	prairie	prairie	prairie_prairie	4	4	8
fla_h20	763217	6989818	1700	1750	1725	50	2	18	10	14	8	166	1.5	1	28	1	0	324147	0	895300	pature	pature	pature_pature	4	4	8
fla_h3	765795	6988742	1940	1975	1958	35	1	6	6	6	0	124	1	0	1	0	NA	0	2578	0	prairie	culture	culture_prairie	4	5	9
fla_h4	765554	6988485	1836	1940	1888	104	1	2	2	2	0	211	2	0	1	0	NA	0	2677	0	pature	pature	pature_pature	4	4	8
fla_h5	765298	6988797	1700	1750	1725	50	3	16	3	10	13	226	2.5	0	1	0	NA	0	2470	0	pature	prairie	pature_prairie	4	4	8
fla_h6	765651	6989098	1750	1836	1793	86	1	6	6	6	0	187	2	0	1	0	NA	0	2852	0	pature	pature	pature_pature	4	4	8
fla_h7	764854	6990244	2006	2010	2008	4	1	4	4	4	0	197	0.5	0	1	0	NA	0	1815	0	pature	pature	pature_pature	4	4	8
fla_h8	765007	6989954	1750	1836	1793	86	3	15	6	12	9	137	1	0	1	0	NA	0	1955	0	pature	pature	pature_pature	4	4	8
fla_h9	764508	6990472	1836	1940	1888	104	2	12	12	12	0	206	1	0	1	0	NA	0	1433	0	pature	pature	pature_pature	4	4	8
fless_h1	648602	6984518	1997	2001	1999	4	1	2	2	2	0	470	2	0	1	0	43	77307	43	190568	culture	culture	culture_culture	5	5	10
la_bou_h1	770902	6976530	1700	1750	1725	50	3	16	8	12	8	206	1	0	1	0	15	91503	15	353562	pature	culture	culture_pature	4	5	9
la_bou_h2	771021	6976764	1700	1750	1725	50	3	18	6	12	12	225	2	0	1	0	203	92112	203	380555	culture	pature	culture_pature	5	4	9
la_bou_h3	769881	6974040	1750	1939	1845	189	3	16	6	11	10	123	2	0	1	0	NA	0	978	674	pature	pature	pature_pature	4	4	8
la_bou_h4	768995	6974206	1996	2001	1999	5	1	6	6	6	0	473	1	0	1	0	NA	0	1375	0	pature	pature	pature_pature	4	4	8
la_bou_h5	768727	6975647	1750	1939	1845	189	2	15	15	15	0	224	1.5	0	1	0	360	5141	360	5249	pature	pature	pature_pature	4	4	8
la_bou_h6	768673	6975734	1700	1750	1725	50	3	20	8	14	12	198	3.5	0	1	0	332	5754	332	9200	prairie	chemin	chemin_autre	4	1	5
la_chap_h1	618320	6937712	1700	1800	1750	100	3	10	3	7	7	98	4	0	1	0	178	7998	178	7998	pature	chemin	chemin_autre	4	1	5
la_chap_h2	617900	6937367	1975	1986	1981	11	3	8	3	6	5	202	1	1	5	1	0	110759	0	112064	culture	culture	culture_culture	5	5	10
la_chap_h3	617818	6937180	1800	1947	1874	147	1	15	15	15	0	105	2	1	16	1	0	110759	0	170193	culture	culture	culture_culture	5	5	10
la_chap_h4	617539	6937109	1800	1947	1874	147	2	10	4	7	6	208	2	0	1	0	36	118809	36	271837	pature	pature	pature_pature	4	4	8
lam_h1	616266	7010452	1806	1806	1806	0	3	12	3	7	9	178	3	0	1	0	228	815	228	815	pature	pature	pature_pature	4	4	8
lam_h2	616142	7010432	1806	1806	1806	0	3	18	6	12	12	117	2	0	1	0	386	815	386	815	pature	culture	culture_pature	4	5	9
lam_h3	616863	7010203	1997	2001	1999	4	2	16	16	16	0	107	2	0	1	0	236	5916	236	5916	pature	culture	culture_pature	4	5	9
lam_h4	616935	7010434	1806	1947	1877	141	1	2	2	2	0	65	1	0	1	0	179	5916	179	5916	pature	pature	pature_pature	4	4	8
lam_h5	617057	7010440	1806	1947	1877	141	3	16	4	10	12	119	2	0	1	0	76	5916	76	5916	pature	pature	pature_pature	4	4	8
lam_h6	615987	7010836	1806	1947	1877	141	3	20	6	13	14	132	2	0	1	0	429	815	429	815	pature	pature	pature_pature	4	4	8
le_boi_h1	627968	7019264	1773	1947	1860	174	3	4	20	12	-16	78	3	1	18	1	0	262807	0	392824	chemin	pature	chemin_autre	1	4	5
le_boi_h2	627573	7020272	1772	1774	1773	2	2	15	15	15	0	180	2	1	40	0	176	16529	176	192690	pature	culture	culture_pature	4	5	9
marc_h1	670124	6972320	2002	2002	2002	0	2	8	5	7	3	433	2	1	42	0	NA	0	929	4802	culture	culture	culture_culture	5	5	10
marc_h2	670219	6971161	2002	2002	2002	0	2	10	4	7	6	279	2	1	28	0	36	177556	36	392874	culture	culture	culture_culture	5	5	10
marc_h3	667914	6974131	2002	2002	2002	0	2	13	8	10	5	259	2	1	19	0	NA	0	2248	0	culture	culture	culture_culture	5	5	10
marc_h4	670717	6972214	2002	2002	2002	0	2	12	8	10	4	368	2	1	28	0	169	170282	169	219868	culture	culture	culture_culture	5	5	10
marc_h5	670552	6971058	2002	2002	2002	0	2	8	3	6	5	215	2	1	16	0	117	202315	117	410141	culture	culture	culture_culture	5	5	10
marc_h6	669539	6973809	2002	2002	2002	0	2	15	9	12	6	275	2	1	9	0	NA	0	2221	0	culture	culture	culture_culture	5	5	10
mon_h1	612404	6950594	1700	1800	1750	100	1	1.8	1.8	1.8	0	171	0.8	1	34	1	0	324580	0	717664	pature	pature	pature_pature	4	4	8
mon_h2	612954	6951606	1800	1947	1874	147	2	12	12	12	0	119	3	1	23	1	0	82743	0	137675	culture	pature	culture_pature	5	4	9
mon_h3	611879	6950951	1986	1989	1988	3	1	6	6	6	0	71	1	1	16	0	454	2764	454	121258	culture	culture	culture_culture	5	5	10
mon_h4	612295	6951134	1947	1975	1961	28	1	4	4	4	0	51	1	0	1	0	395	10099	395	58813	pature	pature	pature_pature	4	4	8
ons_h1	621065	6924502	1936	1950	1943	14	3	15	4	10	11	104	2	0	1	0	156	7035	156	7035	pature	pature	pature_pature	4	4	8
ons_h2	621279	6924498	2001	2006	2004	5	1	4	4	4	0	103	2	0	1	0	261	7714	261	7714	pature	pature	pature_pature	4	4	8
ons_h3	621199	6924720	1936	1950	1943	14	3	15	3	9	12	164	3	0	1	0	128	12828	128	12828	pature	pature	pature_pature	4	4	8
ons_h4	621878	6925117	1950	1975	1963	25	3	15	5	10	10	75	5	0	1	0	80	66149	80	83743	pature	pature	pature_pature	4	4	8
ons_h5	622559	6925398	1950	1975	1963	25	1	6	6	6	0	84	1.5	0	1	0	337	47290	337	64884	pature	pature	pature_pature	4	4	8
ons_h6	621679	6923862	1936	1950	1943	14	3	18	10	14	8	168	3	0	1	0	NA	0	637	110727	pature	culture	culture_pature	4	5	9
ons_h7	622215	6923592	1936	1950	1943	14	2	8	8	8	0	105	4	0	1	0	NA	0	891	25164	pature	pature	pature_pature	4	4	8
prou_h1	638065	7005849	1835	1835	1835	0	2	14	4	9	10	111	1	0	1	0	170	10470	170	10470	culture	pature	culture_pature	5	4	9
sor_h1	764375	6978041	1800	1866	1833	66	1	6	6	6	0	317	2.5	0	1	0	11	70552	11	133952	pature	pature	pature_pature	4	4	8
sor_h2	763566	6977695	1700	1800	1750	100	3	12	6	9	6	101	2	0	1	0	377	23427	377	339802	pature	culture	culture_pature	4	5	9
sor_h3	763793	6977684	1700	1800	1750	100	3	15	2	8	13	52	2	0	1	0	176	39263	176	227900	pature	chemin	chemin_autre	4	1	5
sor_h4	763874	6977829	1700	1800	1750	100	3	16	6	11	10	83	3	0	1	0	119	43418	119	233117	pature	chemin	chemin_autre	4	1	5
sor_h5	763987	6976777	1800	1826	1813	26	3	16	4	10	12	163	3	0	1	0	NA	0	1011	0	pature	culture	culture_pature	4	5	9
st_ar_h1	613807	6948769	1992	1997	1995	5	1	4	4	4	0	99	2	0	1	0	175	62143	175	81077	pature	chemin	chemin_autre	4	1	5
st_ar_h2	613641	6948837	1800	1947	1874	147	1	8	8	8	0	116	4	1	20	1	0	101136	0	101136	pature	culture	culture_pature	4	5	9
st_ar_h3	614013	6948722	1800	1947	1874	147	1	6	6	6	0	143	3	0	1	0	248	39514	248	130426	pature	chemin	chemin_autre	4	1	5
st_ar_h4	614071	6948739	1800	1947	1874	147	2	14	14	14	0	56	2	0	1	0	245	28246	245	132579	pature	pature	pature_pature	4	4	8
st_ar_h5	614002	6948624	1947	1975	1961	28	1	8	8	8	0	83	2	0	1	0	305	20825	305	62639	pature	pature	pature_pature	4	4	8
st_ar_h6	614468	6948722	1700	1800	1750	100	3	12	3	8	9	135	3	0	1	0	195	8440	195	188286	pature	prairie	pature_prairie	4	4	8
st_ar_h7	613047	6949441	1800	1947	1874	147	3	10	3	6	7	119	1.5	1	18	1	0	158222	0	386874	pature	prairie	pature_prairie	4	4	8
st_ar_h8	613173	6949590	1800	1947	1874	147	1	1.8	1.8	1.8	0	90	1	0	1	1	0	129735	0	333762	pature	pature	pature_pature	4	4	8
st_ar_h9	612384	6948563	1800	1947	1874	147	2	14	14	14	0	104	2	0	1	0	NA	0	989	823	pature	pature	pature_pature	4	4	8
st_germ_h1	611497	6928305	1782	1782	1782	0	3	18	6	12	12	97	2	0	1	0	254	93297	254	377991	pature	pature	pature_pature	4	4	8
st_germ_h2	610841	6927898	1782	1947	1865	165	3	8	3	6	5	269	2	0	1	0	163	35548	163	188341	pature	pature	pature_pature	4	4	8
st_germ_h3	610819	6928159	1782	1782	1782	0	3	7	3	5	4	196	1	0	1	0	401	11388	401	198464	pature	pature	pature_pature	4	4	8
vsver_h1	608349	6941967	1945	1975	1960	30	2	20	4	12	16	54	2	0	1	0	242	3485	242	29676	pature	pature	pature_pature	4	4	8
vsver_h2	608036	6943127	1784	1947	1866	163	2	10	2	6	8	162	1	1	14	1	0	394114	0	1141877	pature	pature	pature_pature	4	4	8
vsver_h3	609061	6943100	1784	1947	1866	163	2	18	4	11	14	144	3	1	12	1	0	258870	0	620342	pature	pature	pature_pature	4	4	8
